…
We read in the same data from Activity 4 below, but notice that this
code is now surrounded in parentheses.

``` r
(college_recent_grads <- read_csv("data/recent-grads.csv"))
```

    ## # A tibble: 173 x 21
    ##     rank major_code major           major_category total sample_size   men women
    ##    <dbl>      <dbl> <chr>           <chr>          <dbl>       <dbl> <dbl> <dbl>
    ##  1     1       2419 Petroleum Engi… Engineering     2339          36  2057   282
    ##  2     2       2416 Mining And Min… Engineering      756           7   679    77
    ##  3     3       2415 Metallurgical … Engineering      856           3   725   131
    ##  4     4       2417 Naval Architec… Engineering     1258          16  1123   135
    ##  5     5       2405 Chemical Engin… Engineering    32260         289 21239 11021
    ##  6     6       2418 Nuclear Engine… Engineering     2573          17  2200   373
    ##  7     7       6202 Actuarial Scie… Business        3777          51  2110  1667
    ##  8     8       5001 Astronomy And … Physical Scie…  1792          10   832   960
    ##  9     9       2414 Mechanical Eng… Engineering    91227        1029 80320 10907
    ## 10    10       2408 Electrical Eng… Engineering    81527         631 65511 16016
    ## # … with 163 more rows, and 13 more variables: sharewomen <dbl>,
    ## #   employed <dbl>, employed_fulltime <dbl>, employed_parttime <dbl>,
    ## #   employed_fulltime_yearround <dbl>, unemployed <dbl>,
    ## #   unemployment_rate <dbl>, p25th <dbl>, median <dbl>, p75th <dbl>,
    ## #   college_jobs <dbl>, non_college_jobs <dbl>, low_wage_jobs <dbl>
…
-   Specify that you want to use the `college_recent_grads` dataset,
    *then*, using the appropriate functions from `{dplyr}`, obtain the
    *median* summary statistic for the variable “median earnings of
    full-time, year-round workers” (this very wordy variable is simply
    `median` in the dataset).
-   In the appropriate *summarizing* step, refer to your numerical
    summary `median_earnings`.

``` r
college_recent_grads %>%
  summarise(median) %>%
  mutate(the_median = median(median))
```

    ## # A tibble: 173 x 2
    ##    median the_median
    ##     <dbl>      <dbl>
    ##  1 110000      36000
    ##  2  75000      36000
    ##  3  73000      36000
    ##  4  70000      36000
    ##  5  65000      36000
    ##  6  65000      36000
    ##  7  62000      36000
    ##  8  62000      36000
    ##  9  60000      36000
    ## 10  60000      36000
    ## # … with 163 more rows
…
``` r
college_recent_grads %>%
group_by(major) %>%
  summarise(n = sum(sample_size), 
            median_earnings = median(median),
            the_mean = mean(median_earnings),
            sd(median_earnings),
            min(median_earnings),
            max(median_earnings))
```

    ## # A tibble: 173 x 7
    ##    major           n median_earnings the_mean `sd(median_earni… `min(median_ear…
    ##    <chr>       <dbl>           <dbl>    <dbl>             <dbl>            <dbl>
    ##  1 Accounting   2042           45000    45000                NA            45000
    ##  2 Actuarial …    51           62000    62000                NA            62000
    ##  3 Advertisin…   681           35000    35000                NA            35000
    ##  4 Aerospace …   147           60000    60000                NA            60000
    ##  5 Agricultur…    44           40000    40000                NA            40000
    ##  6 Agricultur…   273           40000    40000                NA            40000
    ##  7 Animal Sci…   255           30000    30000                NA            30000
    ##  8 Anthropolo…   247           28000    28000                NA            28000
    ##  9 Applied Ma…    45           45000    45000                NA            45000
    ## 10 Architectu…    26           54000    54000                NA            54000
    ## # … with 163 more rows, and 1 more variable: max(median_earnings) <dbl>
…
``` r
major_earnings <- college_recent_grads %>%
group_by(major) %>%
  summarise(n = sum(sample_size), 
            median_earnings = median(median),
            the_mean = mean(median_earnings),
            sd(median_earnings),
            min(median_earnings),
            max(median_earnings))
  

arrange(major_earnings, desc(median_earnings))
```

    ## # A tibble: 173 x 7
    ##    major           n median_earnings the_mean `sd(median_earni… `min(median_ear…
    ##    <chr>       <dbl>           <dbl>    <dbl>             <dbl>            <dbl>
    ##  1 Petroleum …    36          110000   110000                NA           110000
    ##  2 Mining And…     7           75000    75000                NA            75000
    ##  3 Metallurgi…     3           73000    73000                NA            73000
    ##  4 Naval Arch…    16           70000    70000                NA            70000
    ##  5 Chemical E…   289           65000    65000                NA            65000
    ##  6 Nuclear En…    17           65000    65000                NA            65000
    ##  7 Actuarial …    51           62000    62000                NA            62000
    ##  8 Astronomy …    10           62000    62000                NA            62000
    ##  9 Aerospace …   147           60000    60000                NA            60000
    ## 10 Biomedical…    79           60000    60000                NA            60000
    ## # … with 163 more rows, and 1 more variable: max(median_earnings) <dbl>
…
